<?xml version="1.0" encoding="UTF-8" standalone="no"?>
<svg
   xmlns:dc="http://purl.org/dc/elements/1.1/"
   xmlns:cc="http://creativecommons.org/ns#"
   xmlns:rdf="http://www.w3.org/1999/02/22-rdf-syntax-ns#"
   xmlns:svg="http://www.w3.org/2000/svg"
   xmlns="http://www.w3.org/2000/svg"
   xmlns:xlink="http://www.w3.org/1999/xlink"
   xmlns:sodipodi="http://sodipodi.sourceforge.net/DTD/sodipodi-0.dtd"
   xmlns:inkscape="http://www.inkscape.org/namespaces/inkscape"
   inkscape:version="1.0 (4035a4fb49, 2020-05-01)"
   inkscape:export-ydpi="241.89999"
   inkscape:export-xdpi="241.89999"
   inkscape:export-filename="B:\Data\Books\openmens\img\0102---psychologie---pavlovs_dog_conditioning.png"
   sodipodi:docname="0102---psychologie---pavlovs_dog_conditioning.svg"
   id="svg1121"
   version="1.1"
   viewBox="0 0 510.00305 300.00411"
   height="300"
   width="510">
  <metadata
     id="metadata1125">
    <rdf:RDF>
      <cc:Work
         rdf:about="">
        <dc:format>image/svg+xml</dc:format>
        <dc:type
           rdf:resource="http://purl.org/dc/dcmitype/StillImage" />
      </cc:Work>
    </rdf:RDF>
  </metadata>
  <sodipodi:namedview
     inkscape:current-layer="svg1121"
     inkscape:window-maximized="0"
     inkscape:window-y="18"
     inkscape:window-x="32"
     inkscape:cy="150"
     inkscape:cx="255"
     inkscape:zoom="2.3627451"
     showgrid="false"
     id="namedview1123"
     inkscape:window-height="977"
     inkscape:window-width="1424"
     inkscape:pageshadow="2"
     inkscape:pageopacity="0"
     guidetolerance="10"
     gridtolerance="10"
     objecttolerance="10"
     borderopacity="1"
     bordercolor="#666666"
     pagecolor="#ffffff" />
  <defs
     id="defs984">
    <path
       fill="#fff"
       color="#000"
       d="m 176.87 52.822 c 0.079 0.466 0.167 1.142 6.187 -1.591 -2.216 -1.641 -4.756 -2.952 -6.276 -1.458 -0.841 1.119 -1.54 1.935 0.088 3.049 z"
       id="4" />
    <path
       fill="#fff"
       color="#000"
       d="m 177.35 57.51 a 0.685 0.751 0 1 1 -1.37 0 0.685 0.751 0 1 1 1.37 0 z"
       id="5" />
    <path
       stroke-linecap="round"
       fill="#fff197"
       color="#000"
       stroke="#000"
       stroke-linejoin="round"
       d="m 185.26 41.95 c 4.445 1.463 5.135 3.609 4.419 6.01 m -4.331 -0.796 c -1.411 -2.245 -4.809 -3.332 -7.778 -4.419 1.576 0.245 1.072 1.422 3.536 2.121 -1.849 -0.227 -1.964 1.966 -2.652 3.359 1.01 0.666 2.072 1.34 3.889 2.121 1.146 0.571 1.176 1.369 -0.751 1.768 -2.32 0.658 -4.204 2.37 -5.348 0.884 -2.147 -2.507 0.895 -3.799 2.121 -4.596 m 18.208 -12.905 c -3.13 8.837 -1.176 18.05 -3.712 25.633 -3.158 9.158 -1.736 13.383 -0.707 18.03 l 13.435 -5.127 c 5.855 -3.514 9.855 -10.458 7.96 -18.385 -1 -4.199 -0.214 -5.531 0.146 -7.581 0.434 2.657 -2.937 7.82 3.644 6.429 5.853 4.803 4.03 -5.249 2.481 -9.455 m -16.673 -11.544 c -1.914 0 -3.785 0.402 -5.425 1.406 -0.41 0.379 -0.844 -0.082 -1.188 -0.188 0.067 -0.133 0.133 -0.266 0.199 -0.399 -0.406 -0.422 -1.14 -0.562 -1.984 -0.593 -6.234 -3.739 -20.698 9.03 -22.693 16.806 -19.936 10.59 -31.12 9.757 -21.866 20.643 1.366 5.206 3.932 9.01 8.751 10.72 7.161 2.542 22.258 -6.369 24.749 -6.04 8.714 3.568 -15.865 12.853 -19.15 11.961 7.03 7.696 20.888 -5.655 24 -6.121 10.295 -2.335 18.595 7.123 16.447 5.34 -4.137 -3.436 -10.5 -6.19 -16.13 -4.469 l -1.562 0.375 c 3.516 6.815 10.285 15.628 13.679 24.573 3.418 4.741 3.326 5.607 3.02 10.65 -2.01 8.617 -2.106 15.437 -2.106 15.437 l 47.946 -0.011 c -0.177 -15.734 0.078 -30 -0.164 -47.34 -10.683 -4.647 -17.902 -33.15 -28.16 -38.996 -1.834 -1.89 -4.051 -5.496 -4.625 -7.356 -3.314 -3.704 -9.233 -6.25 -13.743 -6.405 z"
       id="6" />
    <path
       stroke-width="0.5"
       stroke-linecap="round"
       fill="#f00"
       color="#000"
       stroke="#000"
       stroke-linejoin="round"
       d="m 164.25 91.75 c 1.187 2.534 -2.227 6.06 -3.972 1.104 -0.381 -2.583 -1.179 -6.669 5.884 -9.253 8.735 -0.369 11.09 -3.343 14.25 -5.25 6.816 -2.574 5.233 0.357 0.588 3.399 -4.738 1.94 -9.12 4.593 -14.5 5.25 -3.128 0.832 -3.597 2.504 -2.25 4.75 z"
       id="7" />
  </defs>
  <path
     id="path986"
     d="m 261 293 v -288"
     stroke-width="2"
     stroke="#000"
     fill="none" />
  <g
     id="g1000"
     transform="translate(244.9 7.813)">
    <use
       id="use988"
       xlink:href="#4" />
    <g
       id="g996"
       transform="matrix(1 0 0 1 -0.002 0)"
       color="#000"
       stroke-linecap="round"
       stroke-linejoin="round"
       stroke="#000">
      <path
         id="path990"
         d="m 178.57 49.2 c -3.828 2.671 -1.581 3.178 -0.749 3.593 2.071 -1.232 2.225 -1.575 0.749 -3.593 z" />
      <path
         id="path992"
         fill="#fff197"
         d="m 185.26 41.949 c 4.445 1.463 5.135 3.609 4.419 6.01 m -4.331 -0.795 c -1.411 -2.245 -4.809 -3.332 -7.778 -4.419 1.576 0.245 1.072 1.422 3.536 2.121 -1.849 -0.227 -1.964 1.966 -2.652 3.359 1.01 0.666 2.072 1.34 3.889 2.121 1.146 0.571 1.176 1.369 -0.751 1.768 -2.32 0.658 -4.204 2.37 -5.347 0.884 -2.147 -2.507 0.895 -3.799 2.121 -4.596 m 18.208 -12.905 c -3.13 8.837 -1.176 18.05 -3.712 25.633 -3.158 9.158 -1.736 13.383 -0.707 18.03 l 13.435 -5.127 c 5.855 -3.514 9.855 -10.458 7.96 -18.385 -1 -4.198 -0.214 -5.531 0.146 -7.581 0.434 2.657 -2.937 7.82 3.644 6.429 5.853 4.803 4.03 -5.249 2.481 -9.454 m -16.673 -11.543 c -1.914 0 -3.785 0.402 -5.425 1.406 -0.41 0.379 -0.844 -0.082 -1.188 -0.188 0.067 -0.133 0.133 -0.266 0.199 -0.399 -0.406 -0.422 -1.14 -0.562 -1.984 -0.593 -6.234 -3.739 -20.698 9.03 -22.693 16.805 -19.935 10.59 -31.12 9.757 -21.865 20.643 1.366 5.206 3.932 9.01 8.751 10.719 7.161 2.542 22.435 -2.833 24.926 -2.501 0.496 -0.184 -21.263 3.281 -22.825 3.175 0.701 5.01 23.813 -0.649 27.504 -0.871 10.295 -2.335 18.594 7.123 16.447 5.34 -4.137 -3.436 -10.499 -6.19 -16.13 -4.469 l -1.562 0.375 c 3.516 6.815 10.285 15.628 13.679 24.573 3.418 4.741 3.326 5.607 3.02 10.65 -2.01 8.617 -2.106 15.437 -2.106 15.437 l 47.945 -0.011 c -0.177 -15.733 0.078 -30 -0.164 -47.34 -10.683 -4.647 -17.901 -33.14 -28.16 -38.995 -1.834 -1.89 -4.05 -5.496 -4.625 -7.356 -3.314 -3.704 -9.233 -6.25 -13.743 -6.405 z" />
      <path
         id="path994"
         d="m 153.5 59.62 l -3.75 1.5 c -2.374 1.474 -3.289 3.611 -2 6.75 l 2.5 3.25 c 4.832 -2.762 7.679 -6.092 3.25 -11.5 z" />
    </g>
    <use
       id="use998"
       xlink:href="#5"
       transform="matrix(1 0 0 1 0.573 -6.364)" />
  </g>
  <g
     id="g1014"
     transform="translate(-7.103 7.813)">
    <use
       id="use1002"
       xlink:href="#4" />
    <path
       id="path1004"
       color="#000"
       stroke-linecap="round"
       stroke-linejoin="round"
       stroke="#000"
       d="m 178.57 49.2 c -3.828 2.671 -1.581 3.178 -0.749 3.593 2.071 -1.233 2.225 -1.575 0.749 -3.593 z" />
    <use
       id="use1006"
       xlink:href="#6" />
    <path
       id="path1008"
       color="#000"
       stroke-linecap="round"
       stroke-linejoin="round"
       stroke="#000"
       d="m 153.5 59.63 l -3.75 1.5 c -2.374 1.474 -3.29 3.611 -2 6.75 l 2.5 3.25 c 4.832 -2.762 7.679 -6.092 3.25 -11.5 z" />
    <use
       id="use1010"
       xlink:href="#5"
       transform="matrix(1 0 0 1 0.573 -6.364)" />
    <use
       id="use1012"
       xlink:href="#7"
       transform="matrix(1 0 0 1 -0.002 0)" />
  </g>
  <g
     id="g1027"
     transform="translate(-7.103 151.82)">
    <use
       id="use1016"
       xlink:href="#4" />
    <path
       id="path1018"
       color="#000"
       stroke-linecap="round"
       stroke-linejoin="round"
       stroke="#000"
       d="m 178.57 49.2 c -3.828 2.671 -1.581 3.178 -0.749 3.593 2.071 -1.233 2.225 -1.575 0.749 -3.593 z" />
    <use
       id="use1020"
       xlink:href="#6" />
    <path
       id="8"
       color="#000"
       stroke-linecap="round"
       stroke-linejoin="round"
       stroke="#000"
       d="m 153.5 59.63 l -3.75 1.5 c -2.374 1.474 -3.29 3.611 -2 6.75 l 2.5 3.25 c 4.832 -2.762 7.679 -6.092 3.25 -11.5 z" />
    <use
       id="use1023"
       xlink:href="#5"
       transform="matrix(1 0 0 1 0.573 -6.364)" />
    <use
       id="use1025"
       xlink:href="#7"
       transform="matrix(1 0 0 1 -0.002 0)" />
  </g>
  <g
     id="g1041"
     transform="translate(244.9 151.82)">
    <use
       id="use1029"
       xlink:href="#4" />
    <path
       id="path1031"
       color="#000"
       stroke-linecap="round"
       stroke-linejoin="round"
       stroke="#000"
       d="m 178.57 49.2 c -3.828 2.671 -1.581 3.178 -0.749 3.593 2.071 -1.233 2.225 -1.575 0.749 -3.593 z" />
    <use
       id="use1033"
       xlink:href="#6" />
    <use
       id="use1035"
       xlink:href="#8" />
    <use
       id="use1037"
       xlink:href="#5"
       transform="matrix(1 0 0 1 0.573 -6.364)" />
    <use
       id="use1039"
       xlink:href="#7"
       transform="matrix(1 0 0 1 -0.002 0)" />
  </g>
  <g
     id="g1047"
     stroke="#000"
     fill="none">
    <path
       id="path1043"
       stroke-width="0.5"
       d="m -0.002 0 h 510.01 v 300 h -510.01 z" />
    <path
       id="path1045"
       d="m 6 154 h 498.19"
       stroke-width="2.01"
       stroke-linecap="square" />
  </g>
  <g
     color="#000"
     stroke-linecap="round"
     stroke-linejoin="round"
     stroke="#000"
     id="0"
     transform="translate(553.23 -8.668)">
    <g
       id="g1055"
       transform="translate(-0.228 1.508)">
      <path
         id="path1049"
         fill="#4d4d4d"
         d="m -236.64 100.71 c 8.604 1.025 18.75 -0.755 26.548 -4.766 -13.999 -1.217 -19.253 1.446 -26.548 4.766 z" />
      <path
         id="path1051"
         stroke-width="0.5"
         fill="#500"
         d="m -230.14 72.08 l 4.702 -0.686 c -0.786 -2.808 -1.392 -4.04 -1.893 -4.253 0.737 -2.471 0.009 -4.615 -0.718 -6.76 0.159 -2.702 0.325 -5.401 -1.142 -8.591 0.437 -1.187 -0.004 -2.227 -0.552 -3.249 0.048 -2.593 -3.058 -3.895 -2.589 0.455 -0.791 1.106 -0.572 2.212 -0.039 3.318 -0.905 3.799 0.059 6.102 0.75 8.625 -0.4 2.751 0.021 4.971 1.125 6.75 0.075 1.116 -0.521 2.031 0.356 4.392 z" />
      <path
         id="path1053"
         fill="#ff0"
         d="m -236.7 100.55 c 12.383 -4.796 19.995 -5.754 26.87 -4.419 -5.392 -1.311 -4.01 -8.132 -6.01 -12.198 -5.336 -17.349 -18.18 -17.06 -18.738 2.652 -0.707 4.655 2.567 11.301 -2.121 13.965 z" />
    </g>
    <g
       id="g1075"
       fill="none">
      <g
         id="g1071"
         transform="matrix(1 0 0 1 -0.002 0)">
        <path
           id="path1057"
           d="m -242.54 89.1 c 0.025 5.908 0.019 11.843 3.229 15.14 m -7.35 -15.14 c 0.079 6.615 0.299 13.547 4.01 18.374 m -8.797 -19.376 c -0.006 8.241 0.811 16 5.791 21.604" />
        <path
           id="path1059"
           d="m -233.07 74.74 c -2.594 5.079 -3.641 9.471 -3.563 13.363" />
        <path
           id="path1061"
           d="m -235.75 76.63 c -2.166 4.379 -2.314 7.316 -2.45 10.245" />
        <path
           id="path1063"
           d="m -238.42 78.86 c -1.294 2.159 -1.465 4.567 -1.225 7.02" />
        <path
           id="path1065"
           d="m -216.82 73.18 c 2.319 1.78 3.653 3.689 4.788 6.682" />
        <path
           id="path1067"
           d="m -218.85 73.76 c 3.351 2.586 4.795 5.734 5.705 8.89" />
        <path
           id="path1069"
           d="m -221.6 73.51 c 4.153 3.135 6.151 7.564 7.35 12.472" />
      </g>
      <path
         id="path1073"
         d="m -207.78 80.48 c 2.246 5.465 4.532 10.941 2.836 15.224 m 0.968 -16.806 c 2.468 6.138 4.928 12.623 3.357 18.505 m 0.679 -21.269 c 3.171 7.607 5.399 15.09 2.952 22.17" />
    </g>
  </g>
  <use
     id="use1078"
     xlink:href="#0"
     height="292"
     width="500.2"
     transform="translate(-1.762 145.1)" />
  <use
     id="use1080"
     xlink:href="#0"
     height="292"
     width="500.2"
     transform="translate(-268.12 134.87)" />
  <path
     id="1"
     fill="#ccc"
     d="m 50.34 286.12 c -6.289 -0.328 -11.961 -1.074 -13.363 -1.758 -1.151 -0.826 -1.016 -1.941 -0.621 -2.875 0.753 -0.47 1.545 -0.67 2.352 -1.01 1.089 -3.16 1.496 -5.891 2.656 -9.207 0.867 -1.465 13.34 -2.441 18.379 -2.445 6.386 0.105 16.05 -0.153 18.343 2.375 1.182 3.149 1.604 5.746 2.645 9.133 0.878 0.286 1.654 0.6 2.453 1.093 0.74 1.222 0.097 2.228 -0.68 2.813 -3.304 1.141 -11.148 1.851 -21.632 1.965 -4.071 0.05 -8.809 0.001 -10.532 -0.08 z" />
  <path
     id="2"
     stroke-width="0.5"
     stroke="#000"
     fill="none"
     d="m 50.34 286.12 c -6.289 -0.328 -11.961 -1.074 -13.363 -1.758 -1.151 -0.826 -1.016 -1.941 -0.621 -2.875 0.753 -0.47 1.545 -0.67 2.352 -1.01 1.089 -3.16 1.496 -5.891 2.656 -9.207 0.867 -1.465 13.34 -2.441 18.379 -2.445 6.386 0.105 16.05 -0.153 18.343 2.375 1.182 3.149 1.604 5.746 2.645 9.133 0.878 0.286 1.654 0.6 2.453 1.093 0.74 1.222 0.097 2.228 -0.68 2.813 -3.304 1.141 -11.148 1.851 -21.632 1.965 -4.071 0.05 -8.809 0.001 -10.532 -0.08 z m -8.929 -14.86 c 2.197 1.491 5.068 1.431 7.625 1.813 8.338 0.663 16.765 0.818 25.06 -0.375 1.388 -0.36 2.729 -0.9 4.03 -1.5 m -41.815 10.211 c 5.269 2.875 42.11 3.191 46.828 -0.059" />
  <path
     id="3"
     stroke-width="0.25"
     stroke="#000"
     fill="#d6b929"
     d="m 53.31 272.2 c -2.745 -0.495 -6.644 0.31 -8.568 -1.729 1.717 -1.884 3.394 -3.513 5.963 -4.374 1.749 -1.606 4.455 -2.755 5.959 -3.816 2.836 -0.08 5.799 -0.55 8.03 1.717 2.852 0.703 5.607 2.108 7.575 4.33 1.616 0.567 3.136 3.081 0.318 3.113 -6.368 1.047 -12.849 0.919 -19.276 0.759 z" />
  <g
     id="g1091"
     transform="translate(0 -172)">
    <use
       id="use1085"
       xlink:href="#1" />
    <use
       id="use1087"
       xlink:href="#2" />
    <use
       id="use1089"
       xlink:href="#3" />
  </g>
  <path
     id="path1093"
     stroke-width="0.625"
     stroke="#000"
     fill="#ccc"
     d="m 161.69 113.15 c -4.897 2.329 -0.049 8.484 1.543 3.727 -0.482 -0.832 -0.583 -3.596 -1.543 -3.727 z m 2.155 -10.547 c 5.247 2.303 1.331 8.48 -0.979 3.733 0.357 -0.834 0.04 -3.598 0.979 -3.733 z m -1.376 -1.267 c -5.746 0.245 -4.439 7.4 -0.499 3.823 -0.017 -0.904 1.322 -3.358 0.499 -3.823 z m 0.091 6.236 c -5.746 0.245 -4.439 7.4 -0.499 3.823 -0.017 -0.904 1.322 -3.358 0.499 -3.823 z m 2.6 1.55 c -4.897 2.329 -0.049 8.484 1.543 3.727 -0.482 -0.832 -0.583 -3.596 -1.543 -3.727 z" />
  <g
     id="g1113"
     font-size="24"
     letter-spacing="0"
     color="#000"
     baseline-shift="0"
     font-weight="bold"
     line-height="125%"
     word-spacing="0"
     text-align="center"
     text-anchor="middle">
    <text
       id="text1097"
       block-progression="tb"
       text-indent="0"
       text-transform="none"
       font-family="Sylfaen"
       y="30.534"
       x="21.14"><tspan
         id="tspan1095"
         y="30.534"
         x="21.14">1</tspan></text>
    <g
       id="g1111"
       transform="matrix(1 0 0 1 -0.002 0)">
      <text
         id="text1101"
         block-progression="tb"
         text-indent="0"
         text-transform="none"
         font-family="Liberation Sans"
         y="33.12"
         x="283.68"><tspan
           id="tspan1099"
           y="33.12"
           x="283.68">2</tspan></text>
      <text
         id="text1105"
         block-progression="tb"
         text-indent="0"
         text-transform="none"
         font-family="Sylfaen"
         y="183.04"
         x="16.801"><tspan
           id="tspan1103"
           font-family="Liberation Sans"
           y="183.04"
           x="16.801">3</tspan></text>
      <text
         id="text1109"
         block-progression="tb"
         text-indent="0"
         text-transform="none"
         font-family="Liberation Sans"
         y="184.98"
         x="288.21"><tspan
           id="tspan1107"
           y="184.98"
           x="288.21">4</tspan></text>
    </g>
  </g>
  <g
     id="g1119"
     stroke-width="0.625"
     stroke="#000"
     fill="#ccc">
    <path
       id="path1115"
       d="m 416.19 258.1 c -4.897 2.329 -0.049 8.484 1.543 3.727 -0.482 -0.832 -0.583 -3.596 -1.543 -3.727 z m 2.155 -10.547 c 5.247 2.303 1.331 8.48 -0.979 3.733 0.357 -0.834 0.039 -3.598 0.979 -3.733 z m -1.376 -1.267 c -5.746 0.245 -4.439 7.4 -0.499 3.823 -0.017 -0.904 1.322 -3.358 0.499 -3.823 z m 0.091 6.236 c -5.746 0.245 -4.439 7.4 -0.499 3.823 -0.017 -0.904 1.322 -3.358 0.499 -3.823 z m 2.6 1.55 c -4.897 2.329 -0.049 8.484 1.543 3.727 -0.482 -0.832 -0.583 -3.596 -1.543 -3.727 z" />
    <path
       id="path1117"
       d="m 162.81 258.1 c -4.897 2.329 -0.049 8.484 1.543 3.727 -0.482 -0.832 -0.583 -3.596 -1.543 -3.727 z m 2.155 -10.547 c 5.247 2.303 1.331 8.48 -0.979 3.733 0.357 -0.834 0.04 -3.598 0.979 -3.733 z m -1.376 -1.267 c -5.746 0.245 -4.439 7.4 -0.499 3.823 -0.017 -0.904 1.322 -3.358 0.499 -3.823 z m 0.091 6.236 c -5.746 0.245 -4.439 7.4 -0.499 3.823 -0.017 -0.904 1.322 -3.358 0.499 -3.823 z m 2.6 1.55 c -4.897 2.329 -0.049 8.484 1.543 3.727 -0.482 -0.832 -0.583 -3.596 -1.543 -3.727 z" />
  </g>
</svg>
